%YAML 1.1
%TAG !u! tag:unity3d.com,2011:
--- !u!1001 &2590349269463484179
PrefabInstance:
  m_ObjectHideFlags: 0
  serializedVersion: 2
  m_Modification:
    m_TransformParent: {fileID: 0}
    m_Modifications:
    - target: {fileID: 5531446988991778137, guid: 617f588251c667c4d99fb3851ae35510, type: 3}
      propertyPath: m_Name
      value: plate
      objectReference: {fileID: 0}
    - target: {fileID: 5531446988992008569, guid: 617f588251c667c4d99fb3851ae35510, type: 3}
      propertyPath: m_RootOrder
      value: 0
      objectReference: {fileID: 0}
    - target: {fileID: 5531446988992008569, guid: 617f588251c667c4d99fb3851ae35510, type: 3}
      propertyPath: m_LocalPosition.x
      value: 1.2422132
      objectReference: {fileID: 0}
    - target: {fileID: 5531446988992008569, guid: 617f588251c667c4d99fb3851ae35510, type: 3}
      propertyPath: m_LocalPosition.y
      value: 0.695
      objectReference: {fileID: 0}
    - target: {fileID: 5531446988992008569, guid: 617f588251c667c4d99fb3851ae35510, type: 3}
      propertyPath: m_LocalPosition.z
      value: 0.22320843
      objectReference: {fileID: 0}
    - target: {fileID: 5531446988992008569, guid: 617f588251c667c4d99fb3851ae35510, type: 3}
      propertyPath: m_LocalRotation.w
      value: 1
      objectReference: {fileID: 0}
    - target: {fileID: 5531446988992008569, guid: 617f588251c667c4d99fb3851ae35510, type: 3}
      propertyPath: m_LocalRotation.x
      value: -0
      objectReference: {fileID: 0}
    - target: {fileID: 5531446988992008569, guid: 617f588251c667c4d99fb3851ae35510, type: 3}
      propertyPath: m_LocalRotation.y
      value: -0
      objectReference: {fileID: 0}
    - target: {fileID: 5531446988992008569, guid: 617f588251c667c4d99fb3851ae35510, type: 3}
      propertyPath: m_LocalRotation.z
      value: -0
      objectReference: {fileID: 0}
    - target: {fileID: 5531446988992008569, guid: 617f588251c667c4d99fb3851ae35510, type: 3}
      propertyPath: m_LocalEulerAnglesHint.x
      value: 0
      objectReference: {fileID: 0}
    - target: {fileID: 5531446988992008569, guid: 617f588251c667c4d99fb3851ae35510, type: 3}
      propertyPath: m_LocalEulerAnglesHint.y
      value: 0
      objectReference: {fileID: 0}
    - target: {fileID: 5531446988992008569, guid: 617f588251c667c4d99fb3851ae35510, type: 3}
      propertyPath: m_LocalEulerAnglesHint.z
      value: 0
      objectReference: {fileID: 0}
    - target: {fileID: 5531446988993778585, guid: 617f588251c667c4d99fb3851ae35510, type: 3}
      propertyPath: m_Materials.Array.data[0]
      value: 
      objectReference: {fileID: 2100000, guid: 130cd327cb69f5c4ab2bcdb608fbd58c, type: 2}
    m_RemovedComponents: []
  m_SourcePrefab: {fileID: 100100000, guid: 617f588251c667c4d99fb3851ae35510, type: 3}
